{
  "userinfo": {
    "verified_claims": {
      "verification": {
        "trust_framework": null,
        "time": null,
        "evidence": [
          {
            "type": {
              "value": "id_document"
            },
            "method": null,
            "document": {
              "type": null
            }
          }
        ]
      },
      "claims": {
        "given_name": null,
        "family_name": null,
        "birthdate": null
      }
    }
  }
}
